{
    "key": "group_5ca25e3d6f1bc",
    "title": "Post Options",
    "fields": [
        {
            "key": "field_5ca25e4696466",
            "label": "External Link",
            "name": "external_link",
            "type": "link",
            "instructions": "",
            "required": 0,
            "conditional_logic": 0,
            "wrapper": {
                "width": "",
                "class": "",
                "id": ""
            },
            "return_format": "array"
        },
        {
            "key": "field_5caa4e28fc964",
            "label": "Header Background Color",
            "name": "post_header_background_color",
            "type": "color_picker",
            "instructions": "",
            "required": 0,
            "conditional_logic": 0,
            "wrapper": {
                "width": "",
                "class": "",
                "id": ""
            },
            "default_value": "#000000"
        },
        {
            "key": "field_5caa4e46fc965",
            "label": "Header Image Opacity",
            "name": "post_header_image_opacity",
            "type": "number",
            "instructions": "",
            "required": 0,
            "conditional_logic": 0,
            "wrapper": {
                "width": "",
                "class": "",
                "id": ""
            },
            "default_value": ".8",
            "placeholder": "",
            "prepend": "",
            "append": "",
            "min": 0,
            "max": 1,
            "step": ".1"
        }
    ],
    "location": [
        [
            {
                "param": "post_type",
                "operator": "==",
                "value": "post"
            }
        ],
        [
            {
                "param": "post_type",
                "operator": "==",
                "value": "insight"
            }
        ],
        [
            {
                "param": "post_type",
                "operator": "==",
                "value": "event"
            }
        ]
    ],
    "menu_order": 0,
    "position": "side",
    "style": "default",
    "label_placement": "top",
    "instruction_placement": "label",
    "hide_on_screen": "",
    "active": true,
    "description": "",
    "modified": 1555728576
}